digraph G {
	rankdir=LR;
	subgraph A {
		rank=same;
		start;
		notcase1;
		notcase2;
		dummy;
		notcaseN_1;
		notcaseN;
		blockElse;
		end;
	}

	case1;
	block1;
	
	case2;
	block2;
	
	caseN;
	blockN;
	
	start -> case1 [label="[cond1]", weight=3];
	start -> notcase1 [label="[NOT cond1]", weight=3];
	
	notcase1 -> case2 [label="[cond2]", weight=3];
	notcase1 -> notcase2 [label="[NOT cond2]", weight=3];
	
	notcase2 -> dummy [style="dotted", weight=3];
	dummy [style="invis"];
	dummy -> notcaseN_1 [style="dotted", weight=3];
	
	notcaseN_1 -> caseN  [label="[condN]", weight=3];
	notcaseN_1 -> notcaseN [label="[NOT condN]", weight=3];
	
	case1 -> block1 [style="dotted", weight=30];
	block1 [shape="rectangle", label="case1.statements"];
	block1 -> end [style="dotted"];
	
	case2 -> block2 [style="dotted", weight=30];
	block2 [shape="rectangle", label="case2.statements"];
	block2 -> end [style="dotted"];
	
	caseN -> blockN [style="dotted", weight=30];
	blockN [shape="rectangle", label="caseN.statements"];
	blockN -> end [style="dotted"];
	
	notcaseN -> blockElse [style="dotted"];
	blockElse [shape="rectangle", label="else.statements"];
	blockElse -> end [style="dotted"];
	
	

}