Errors:
- Duplicate block name: foo1. at 1:10
- Duplicate block name: foo1. at 11:16
- Duplicate block name: foo1. at 23:12
- Duplicate block name: foo1. at 1:10
- Duplicate block name: foo1. at 11:16
- Duplicate block name: foo1. at 23:12

Warnings:
- Unused variable. at 25:3
